{
    "guild boss" : {
        "name" : "Guild boss",
        "UTC" : "+1",
        "jour" : "every days",
        "heurDebut" : "00",
        "minuteDebut" : "00",
        "secondeDebut" : "00",
        "heurDuree" : "2",
        "minuteDuree" : "15",
        "secondeDuree" : "00",
        "description" : "let's destroy the guild boss !",
        "color" : "#f002d8",
        "icone" : "https://i.imgur.com/1fgTCZd.png",
        "footer" : "TSP best guild UwU"

    }

}